Instruksi!
- Export collection Postman dalam bentuk JSON.
{
    "name": "Luke Skywalker",
    "height": "172",
    "mass": "77",
    "hair_color": "blond",
    "skin_color": "fair",
    "eye_color": "blue",
    "birth_year": "19BBY",
    "gender": "male",
    "homeworld": "https://swapi.dev/api/planets/1/",
    "films": [
        "https://swapi.dev/api/films/1/",
        "https://swapi.dev/api/films/2/",
        "https://swapi.dev/api/films/3/",
        "https://swapi.dev/api/films/6/"
    ],
    "species": [],
    "vehicles": [
        "https://swapi.dev/api/vehicles/14/",
        "https://swapi.dev/api/vehicles/30/"
    ],
    "starships": [
        "https://swapi.dev/api/starships/12/",
        "https://swapi.dev/api/starships/22/"
    ],
    "created": "2014-12-09T13:50:51.644000Z",
    "edited": "2014-12-20T21:17:56.891000Z",
    "url": "https://swapi.dev/api/people/1/"
}
#
{
    "count": 6,
    "next": null,
    "previous": null,
    "results": [
        {
            "title": "A New Hope",
            "episode_id": 4,
            "opening_crawl": "It is a period of civil war.\r\nRebel spaceships, striking\r\nfrom a hidden base, have won\r\ntheir first victory against\r\nthe evil Galactic Empire.\r\n\r\nDuring the battle, Rebel\r\nspies managed to steal secret\r\nplans to the Empire's\r\nultimate weapon, the DEATH\r\nSTAR, an armored space\r\nstation with enough power\r\nto destroy an entire planet.\r\n\r\nPursued by the Empire's\r\nsinister agents, Princess\r\nLeia races home aboard her\r\nstarship, custodian of the\r\nstolen plans that can save her\r\npeople and restore\r\nfreedom to the galaxy....",
            "director": "George Lucas",
            "producer": "Gary Kurtz, Rick McCallum",
            "release_date": "1977-05-25",
            "characters": [
                "https://swapi.dev/api/people/1/",
                "https://swapi.dev/api/people/2/",
                "https://swapi.dev/api/people/3/",
                "https://swapi.dev/api/people/4/",
                "https://swapi.dev/api/people/5/",
                "https://swapi.dev/api/people/6/",
                "https://swapi.dev/api/people/7/",
                "https://swapi.dev/api/people/8/",
                "https://swapi.dev/api/people/9/",
                "https://swapi.dev/api/people/10/",
                "https://swapi.dev/api/people/12/",
                "https://swapi.dev/api/people/13/",
                "https://swapi.dev/api/people/14/",
                "https://swapi.dev/api/people/15/",
                "https://swapi.dev/api/people/16/",
                "https://swapi.dev/api/people/18/",
                "https://swapi.dev/api/people/19/",
                "https://swapi.dev/api/people/81/"
            ],
            "planets": [
                "https://swapi.dev/api/planets/1/",
                "https://swapi.dev/api/planets/2/",
                "https://swapi.dev/api/planets/3/"
            ],
            "starships": [
                "https://swapi.dev/api/starships/2/",
                "https://swapi.dev/api/starships/3/",
                "https://swapi.dev/api/starships/5/",
                "https://swapi.dev/api/starships/9/",
                "https://swapi.dev/api/starships/10/",
                "https://swapi.dev/api/starships/11/",
                "https://swapi.dev/api/starships/12/",
                "https://swapi.dev/api/starships/13/"
            ],
            "vehicles": [
                "https://swapi.dev/api/vehicles/4/",
                "https://swapi.dev/api/vehicles/6/",
                "https://swapi.dev/api/vehicles/7/",
                "https://swapi.dev/api/vehicles/8/"
            ],
            "species": [
                "https://swapi.dev/api/species/1/",
                "https://swapi.dev/api/species/2/",
                "https://swapi.dev/api/species/3/",
                "https://swapi.dev/api/species/4/",
                "https://swapi.dev/api/species/5/"
            ],
            "created": "2014-12-10T14:23:31.880000Z",
            "edited": "2014-12-20T19:49:45.256000Z",
            "url": "https://swapi.dev/api/films/1/"
        },
        {
            "title": "The Empire Strikes Back",
            "episode_id": 5,
            "opening_crawl": "It is a dark time for the\r\nRebellion. Although the Death\r\nStar has been destroyed,\r\nImperial troops have driven the\r\nRebel forces from their hidden\r\nbase and pursued them across\r\nthe galaxy.\r\n\r\nEvading the dreaded Imperial\r\nStarfleet, a group of freedom\r\nfighters led by Luke Skywalker\r\nhas established a new secret\r\nbase on the remote ice world\r\nof Hoth.\r\n\r\nThe evil lord Darth Vader,\r\nobsessed with finding young\r\nSkywalker, has dispatched\r\nthousands of remote probes into\r\nthe far reaches of space....",
            "director": "Irvin Kershner",
            "producer": "Gary Kurtz, Rick McCallum",
            "release_date": "1980-05-17",
            "characters": [
                "https://swapi.dev/api/people/1/",
                "https://swapi.dev/api/people/2/",
                "https://swapi.dev/api/people/3/",
                "https://swapi.dev/api/people/4/",
                "https://swapi.dev/api/people/5/",
                "https://swapi.dev/api/people/10/",
                "https://swapi.dev/api/people/13/",
                "https://swapi.dev/api/people/14/",
                "https://swapi.dev/api/people/18/",
                "https://swapi.dev/api/people/20/",
                "https://swapi.dev/api/people/21/",
                "https://swapi.dev/api/people/22/",
                "https://swapi.dev/api/people/23/",
                "https://swapi.dev/api/people/24/",
                "https://swapi.dev/api/people/25/",
                "https://swapi.dev/api/people/26/"
            ],
            "planets": [
                "https://swapi.dev/api/planets/4/",
                "https://swapi.dev/api/planets/5/",
                "https://swapi.dev/api/planets/6/",
                "https://swapi.dev/api/planets/27/"
            ],
            "starships": [
                "https://swapi.dev/api/starships/3/",
                "https://swapi.dev/api/starships/10/",
                "https://swapi.dev/api/starships/11/",
                "https://swapi.dev/api/starships/12/",
                "https://swapi.dev/api/starships/15/",
                "https://swapi.dev/api/starships/17/",
                "https://swapi.dev/api/starships/21/",
                "https://swapi.dev/api/starships/22/",
                "https://swapi.dev/api/starships/23/"
            ],
            "vehicles": [
                "https://swapi.dev/api/vehicles/8/",
                "https://swapi.dev/api/vehicles/14/",
                "https://swapi.dev/api/vehicles/16/",
                "https://swapi.dev/api/vehicles/18/",
                "https://swapi.dev/api/vehicles/19/",
                "https://swapi.dev/api/vehicles/20/"
            ],
            "species": [
                "https://swapi.dev/api/species/1/",
                "https://swapi.dev/api/species/2/",
                "https://swapi.dev/api/species/3/",
                "https://swapi.dev/api/species/6/",
                "https://swapi.dev/api/species/7/"
            ],
            "created": "2014-12-12T11:26:24.656000Z",
            "edited": "2014-12-15T13:07:53.386000Z",
            "url": "https://swapi.dev/api/films/2/"
        },
            ],
            "created": "2014-12-20T18:49:38.403000Z",
            "edited": "2014-12-20T20:47:52.073000Z",
            "url": "https://swapi.dev/api/films/6/"
        }
    ]
}
#
{
    "name": "Human",
    "classification": "mammal",
    "designation": "sentient",
    "average_height": "180",
    "skin_colors": "caucasian, black, asian, hispanic",
    "hair_colors": "blonde, brown, black, red",
    "eye_colors": "brown, blue, green, hazel, grey, amber",
    "average_lifespan": "120",
    "homeworld": "https://swapi.dev/api/planets/9/",
    "language": "Galactic Basic",
    "people": [
        "https://swapi.dev/api/people/66/",
        "https://swapi.dev/api/people/67/",
        "https://swapi.dev/api/people/68/",
        "https://swapi.dev/api/people/74/"
    ],
    "films": [
        "https://swapi.dev/api/films/1/",
        "https://swapi.dev/api/films/2/",
        "https://swapi.dev/api/films/3/",
        "https://swapi.dev/api/films/4/",
        "https://swapi.dev/api/films/5/",
        "https://swapi.dev/api/films/6/"
    ],
    "created": "2014-12-10T13:52:11.567000Z",
    "edited": "2014-12-20T21:36:42.136000Z",
    "url": "https://swapi.dev/api/species/1/"
}
#
{
    "name": "R2-D2",
    "height": "96",
    "mass": "32",
    "hair_color": "n/a",
    "skin_color": "white, blue",
    "eye_color": "red",
    "birth_year": "33BBY",
    "gender": "n/a",
    "homeworld": "https://swapi.dev/api/planets/8/",
    "films": [
        "https://swapi.dev/api/films/1/",
        "https://swapi.dev/api/films/2/",
        "https://swapi.dev/api/films/3/",
        "https://swapi.dev/api/films/4/",
        "https://swapi.dev/api/films/5/",
        "https://swapi.dev/api/films/6/"
    ],
    "species": [
        "https://swapi.dev/api/species/2/"
    ],
    "vehicles": [],
    "starships": [],
    "created": "2014-12-10T15:11:50.376000Z",
    "edited": "2014-12-20T21:17:50.311000Z",
    "url": "https://swapi.dev/api/people/3/"
}
#
{
    "count": 39,
    "next": "https://swapi.dev/api/vehicles/?page=2",
    "previous": null,
    "results": [
        {
            "name": "Sand Crawler",
            "model": "Digger Crawler",
            "manufacturer": "Corellia Mining Corporation",
            "cost_in_credits": "150000",
            "length": "36.8 ",
            "max_atmosphering_speed": "30",
            "crew": "46",
            "passengers": "30",
            "cargo_capacity": "50000",
            "consumables": "2 months",
            "vehicle_class": "wheeled",
            "pilots": [],
            "films": [
                "https://swapi.dev/api/films/1/",
                "https://swapi.dev/api/films/5/"
            ],
            "created": "2014-12-10T15:36:25.724000Z",
            "edited": "2014-12-20T21:30:21.661000Z",
            "url": "https://swapi.dev/api/vehicles/4/"
        },
        {
            "name": "T-16 skyhopper",
            "model": "T-16 skyhopper",
            "manufacturer": "Incom Corporation",
            "cost_in_credits": "14500",
            "length": "10.4 ",
            "max_atmosphering_speed": "1200",
            "crew": "1",
            "passengers": "1",
            "cargo_capacity": "50",
            "consumables": "0",
            "vehicle_class": "repulsorcraft",
            "pilots": [],
            "films": [
                "https://swapi.dev/api/films/1/"
            ],
            "created": "2014-12-10T16:01:52.434000Z",
            "edited": "2014-12-20T21:30:21.665000Z",
            "url": "https://swapi.dev/api/vehicles/6/"
        },
        {
            "name": "X-34 landspeeder",
            "model": "X-34 landspeeder",
            "manufacturer": "SoroSuub Corporation",
            "cost_in_credits": "10550",
            "length": "3.4 ",
            "max_atmosphering_speed": "250",
            "crew": "1",
            "passengers": "1",
            "cargo_capacity": "5",
            "consumables": "unknown",
            "vehicle_class": "repulsorcraft",
            "pilots": [],
            "films": [
                "https://swapi.dev/api/films/1/"
            ],
            "created": "2014-12-10T16:13:52.586000Z",
            "edited": "2014-12-20T21:30:21.668000Z",
            "url": "https://swapi.dev/api/vehicles/7/"
        },
        {
            "name": "TIE/LN starfighter",
            "model": "Twin Ion Engine/Ln Starfighter",
            "manufacturer": "Sienar Fleet Systems",
            "cost_in_credits": "unknown",
            "length": "6.4",
            "max_atmosphering_speed": "1200",
            "crew": "1",
            "passengers": "0",
            "cargo_capacity": "65",
            "consumables": "2 days",
            "vehicle_class": "starfighter",
            "pilots": [],
            "films": [
                "https://swapi.dev/api/films/1/",
                "https://swapi.dev/api/films/2/",
                "https://swapi.dev/api/films/3/"
            ],
            "created": "2014-12-10T16:33:52.860000Z",
            "edited": "2014-12-20T21:30:21.670000Z",
            "url": "https://swapi.dev/api/vehicles/8/"
        },
        {
            "name": "Snowspeeder",
            "model": "t-47 airspeeder",
            "manufacturer": "Incom corporation",
            "cost_in_credits": "unknown",
            "length": "4.5",
            "max_atmosphering_speed": "650",
            "crew": "2",
            "passengers": "0",
            "cargo_capacity": "10",
            "consumables": "none",
            "vehicle_class": "airspeeder",
            "pilots": [
                "https://swapi.dev/api/people/1/",
                "https://swapi.dev/api/people/18/"
            ],
            "films": [
                "https://swapi.dev/api/films/2/"
            ],
            "created": "2014-12-15T12:22:12Z",
            "edited": "2014-12-20T21:30:21.672000Z",
            "url": "https://swapi.dev/api/vehicles/14/"
        },
        {
            "name": "TIE bomber",
            "model": "TIE/sa bomber",
            "manufacturer": "Sienar Fleet Systems",
            "cost_in_credits": "unknown",
            "length": "7.8",
            "max_atmosphering_speed": "850",
            "crew": "1",
            "passengers": "0",
            "cargo_capacity": "none",
            "consumables": "2 days",
            "vehicle_class": "space/planetary bomber",
            "pilots": [],
            "films": [
                "https://swapi.dev/api/films/2/",
                "https://swapi.dev/api/films/3/"
            ],
            "created": "2014-12-15T12:33:15.838000Z",
            "edited": "2014-12-20T21:30:21.675000Z",
            "url": "https://swapi.dev/api/vehicles/16/"
        },
        {
            "name": "AT-AT",
            "model": "All Terrain Armored Transport",
            "manufacturer": "Kuat Drive Yards, Imperial Department of Military Research",
            "cost_in_credits": "unknown",
            "length": "20",
            "max_atmosphering_speed": "60",
            "crew": "5",
            "passengers": "40",
            "cargo_capacity": "1000",
            "consumables": "unknown",
            "vehicle_class": "assault walker",
            "pilots": [],
            "films": [
                "https://swapi.dev/api/films/2/",
                "https://swapi.dev/api/films/3/"
            ],
            "created": "2014-12-15T12:38:25.937000Z",
            "edited": "2014-12-20T21:30:21.677000Z",
            "url": "https://swapi.dev/api/vehicles/18/"
        },
        {
            "name": "AT-ST",
            "model": "All Terrain Scout Transport",
            "manufacturer": "Kuat Drive Yards, Imperial Department of Military Research",
            "cost_in_credits": "unknown",
            "length": "2",
            "max_atmosphering_speed": "90",
            "crew": "2",
            "passengers": "0",
            "cargo_capacity": "200",
            "consumables": "none",
            "vehicle_class": "walker",
            "pilots": [
                "https://swapi.dev/api/people/13/"
            ],
            "films": [
                "https://swapi.dev/api/films/2/",
                "https://swapi.dev/api/films/3/"
            ],
            "created": "2014-12-15T12:46:42.384000Z",
            "edited": "2014-12-20T21:30:21.679000Z",
            "url": "https://swapi.dev/api/vehicles/19/"
        },
        {
            "name": "Storm IV Twin-Pod cloud car",
            "model": "Storm IV Twin-Pod",
            "manufacturer": "Bespin Motors",
            "cost_in_credits": "75000",
            "length": "7",
            "max_atmosphering_speed": "1500",
            "crew": "2",
            "passengers": "0",
            "cargo_capacity": "10",
            "consumables": "1 day",
            "vehicle_class": "repulsorcraft",
            "pilots": [],
            "films": [
                "https://swapi.dev/api/films/2/"
            ],
            "created": "2014-12-15T12:58:50.530000Z",
            "edited": "2014-12-20T21:30:21.681000Z",
            "url": "https://swapi.dev/api/vehicles/20/"
        },
        {
            "name": "Sail barge",
            "model": "Modified Luxury Sail Barge",
            "manufacturer": "Ubrikkian Industries Custom Vehicle Division",
            "cost_in_credits": "285000",
            "length": "30",
            "max_atmosphering_speed": "100",
            "crew": "26",
            "passengers": "500",
            "cargo_capacity": "2000000",
            "consumables": "Live food tanks",
            "vehicle_class": "sail barge",
            "pilots": [],
            "films": [
                "https://swapi.dev/api/films/3/"
            ],
            "created": "2014-12-18T10:44:14.217000Z",
            "edited": "2014-12-20T21:30:21.684000Z",
            "url": "https://swapi.dev/api/vehicles/24/"
        }
    ]
}